<svg xmlns="http://www.w3.org/2000/svg" xmlns:xlink="http://www.w3.org/1999/xlink" width="28.5" height="30.768" viewBox="0 0 28.5 30.768">
  <defs>
    <clipPath id="clip-path">
      <rect id="Rectangle_7" data-name="Rectangle 7" width="28.5" height="30.768" fill="#e40000"/>
    </clipPath>
  </defs>
  <g id="Group_109" data-name="Group 109" clip-path="url(#clip-path)">
    <path id="Path_363" data-name="Path 363" d="M247.118,421.238h16.89a3.485,3.485,0,0,0,3.477-3.477v-7.182a.082.082,0,0,0-.006-.038c0-.012-.006-.031-.006-.044s-.006-.025-.006-.038a.351.351,0,0,1-.013-.044c-.006-.013-.006-.025-.013-.038s-.006-.025-.013-.038a.317.317,0,0,1-.019-.044.143.143,0,0,0-.019-.032l-.019-.038c-.006-.012-.013-.019-.019-.031s-.019-.025-.025-.038a.108.108,0,0,0-.025-.031c-.006-.013-.019-.019-.025-.032s-.019-.019-.025-.031-.019-.019-.025-.025l-.031-.031c-.013-.006-.019-.019-.031-.025s-.025-.019-.038-.025-.019-.013-.032-.019a.123.123,0,0,1-.037-.025l-.076-.037-.038-.019c-.013-.006-.025-.006-.038-.013a.119.119,0,0,0-.044-.013.29.29,0,0,1-.032-.006.135.135,0,0,0-.05-.006c-.006,0-.013-.006-.025-.006l-21.406-2.955V403.87a.4.4,0,0,0-.006-.088.045.045,0,0,0-.006-.025c0-.019-.006-.038-.006-.057s-.006-.031-.013-.05-.006-.019-.006-.031l-.019-.057c0-.006-.006-.019-.006-.025a.19.19,0,0,0-.025-.051c-.006-.006-.006-.019-.013-.025a.135.135,0,0,0-.025-.038c-.006-.013-.013-.019-.019-.031s-.013-.019-.019-.032-.019-.025-.025-.038l-.057-.057-.019-.019a.278.278,0,0,0-.044-.038c-.006-.006-.019-.013-.025-.019s-.025-.019-.038-.031a.524.524,0,0,0-.05-.031c-.006-.006-.013-.006-.019-.013l-.082-.038-4.643-1.953a.851.851,0,1,0-.662,1.568l4.12,1.739v18.635a3.481,3.481,0,0,0,3.03,3.446,3.432,3.432,0,1,0,6.375,1.764,3.368,3.368,0,0,0-.472-1.732h7.648a3.386,3.386,0,0,0-.472,1.732,3.433,3.433,0,1,0,3.433-3.433H247.118a1.778,1.778,0,0,1-1.776-1.776v-2.306a3.517,3.517,0,0,0,1.776.479Zm4.233,7.03a1.732,1.732,0,1,1-1.732-1.732,1.736,1.736,0,0,1,1.732,1.732Zm13.57,0a1.732,1.732,0,1,1-1.732-1.732,1.736,1.736,0,0,1,1.732,1.732Zm-.914-8.731h-16.89a1.778,1.778,0,0,1-1.776-1.776v-9.192l20.443,2.816v6.369a1.78,1.78,0,0,1-1.777,1.783Zm0,0" transform="translate(-239 -401.016)" fill="#e40000"/>
  </g>
</svg>
